%YAML 1.1
%TAG !u! tag:unity3d.com,2011:
--- !u!114 &11400000
MonoBehaviour:
  m_ObjectHideFlags: 0
  m_CorrespondingSourceObject: {fileID: 0}
  m_PrefabInstance: {fileID: 0}
  m_PrefabAsset: {fileID: 0}
  m_GameObject: {fileID: 0}
  m_Enabled: 1
  m_EditorHideFlags: 0
  m_Script: {fileID: 11500000, guid: 18dc6c0b0d099be4490e72d0dd94fd8e, type: 3}
  m_Name: Armor
  m_EditorClassIdentifier: 
  name: Armor
  icon: {fileID: 21300000, guid: 9c8101d479c60d34185259c220494c61, type: 3}
  id: 1
  price: 150
  isDefaultItem: 0
  itemType: 1
  Health: 0
  AttackSpeed: 5
  MoveSpeed: 4
  Armor: 10
