%YAML 1.1
%TAG !u! tag:unity3d.com,2011:
--- !u!114 &11400000
MonoBehaviour:
  m_ObjectHideFlags: 0
  m_CorrespondingSourceObject: {fileID: 0}
  m_PrefabInstance: {fileID: 0}
  m_PrefabAsset: {fileID: 0}
  m_GameObject: {fileID: 0}
  m_Enabled: 1
  m_EditorHideFlags: 0
  m_Script: {fileID: 11500000, guid: 18dc6c0b0d099be4490e72d0dd94fd8e, type: 3}
  m_Name: Health Potion
  m_EditorClassIdentifier: 
  name: Health Potion
  icon: {fileID: 21300000, guid: a20d322c5e65a6746808e67a31dfe555, type: 3}
  id: 5
  price: 100
  isDefaultItem: 0
  itemType: 0
  Health: 20
  AttackSpeed: 0
  MoveSpeed: 0
  Armor: 0
